{
  "status": {
    "code": "200",
    "msg": "success"
  },
  "data": [
      {
          "State Code": "CHINSTAT",
          "State Name": "Chin State",
          "State BName": "ခ်င္းျပည္နယ္",
          "State BUName": "ချင်းပြည်နယ်",
          "isState": "0",
          "DivNrcCode": "4",
          "DivNrcCodeMyan": "၄",
          "DivNrcCodeUMyan": "၄"
      },
      {
          "State Code": "KACHSTAT",
          "State Name": "Kachin State",
          "State BName": "ကခ်င္ျပည္နယ္",
          "State BUName": "ကချင်ပြည်နယ်",
          "isState": "0",
          "DivNrcCode": "1",
          "DivNrcCodeMyan": "၁",
          "DivNrcCodeUMyan": "၁"
      },
      {
          "State Code": "KAYASTAT",
          "State Name": "Kayah State",
          "State BName": "ကယားျပည္နယ္",
          "State BUName": "ကယားပြည်နယ်",
          "isState": "0",
          "DivNrcCode": "2",
          "DivNrcCodeMyan": "၂",
          "DivNrcCodeUMyan": "၂"
      },
      {
          "State Code": "KAYISTAT",
          "State Name": "Kayin State",
          "State BName": "ကရင္ျပည္နယ္",
          "State BUName": "ကရင်ပြည်နယ်",
          "isState": "0",
          "DivNrcCode": "3",
          "DivNrcCodeMyan": "၃",
          "DivNrcCodeUMyan": "၃"
      },
      {
          "State Code": "MONSTAT",
          "State Name": "Mon State",
          "State BName": "မြန္ျပည္နယ္",
          "State BUName": "မွန်ပြည်နယ်",
          "isState": "0",
          "DivNrcCode": "10",
          "DivNrcCodeMyan": "၁၀",
          "DivNrcCodeUMyan": "၁၀"
      },
      {
          "State Code": "RAKHSTAT",
          "State Name": "Rakhine State",
          "State BName": "ရခိုင္ျပည္နယ္",
          "State BUName": "ရခိုင်ပြည်နယ်",
          "isState": "0",
          "DivNrcCode": "11",
          "DivNrcCodeMyan": "၁၁",
          "DivNrcCodeUMyan": "၁၁"
      },
      {
          "State Code": "SHANSTAT",
          "State Name": "Shan State",
          "State BName": "ရွမ္းျပည္နယ္",
          "State BUName": "ရှမ်းပြည်နယ်",
          "isState": "0",
          "DivNrcCode": "13",
          "DivNrcCodeMyan": "၁၃",
          "DivNrcCodeUMyan": "၁၃"
      },
      {
          "State Code": "AYEYDIVI",
          "State Name": "Ayeyarwady Division",
          "State BName": "ဧရာ၀တီတိုင္းေဒသႀကီး",
          "State BUName": "ဧရာဝတီတိုင်းဒေသကြီး",
          "isState": "1",
          "DivNrcCode": "14",
          "DivNrcCodeMyan": "၁၄",
          "DivNrcCodeUMyan": "၁၄"
    },
    {
        "State Code": "BAGODIVI",
        "State Name": "Bago Division",
        "State BName": "ပဲခူးတိုင္းေဒသႀကီး",
        "State BUName": "ပဲခူးတိုင်းဒေသကြီး",
        "isState": "1",
        "DivNrcCode": "7",
        "DivNrcCodeMyan": "၇",
        "DivNrcCodeUMyan": "၇"
    },
    {
        "State Code": "MAGWDIVI",
        "State Name": "Magway Division",
        "State BName": "မေကြးတိုင္းေဒသႀကီး",
        "State BUName": "မကွေးတိုင်းဒေသကြီး",
        "isState": "1",
        "DivNrcCode": "8",
        "DivNrcCodeMyan": "၈",
        "DivNrcCodeUMyan": "၈"
    },
    {
        "State Code": "MANDDIVI",
        "State Name": "Mandalay Division",
        "State BName": "မႏၲေလးတိုင္းေဒသႀကီး",
        "State BUName": "မန္တလေးတိုင်းဒေသကြီး",
        "isState": "1",
        "DivNrcCode": "9",
        "DivNrcCodeMyan": "၉",
        "DivNrcCodeUMyan": "၉"
    },
    {
        "State Code": "NAPTWDIVI",
        "State Name": "Naypyitaw Union Territory",
        "State BName": "ေနျပည္ေတာ္ ျပည္ေထာင္စုနယ္ေျမ",
        "State BUName": "နေပြည်တော် ပြည်ထောင်စုနယ်မြေ",
        "isState": "1",
        "DivNrcCode": "9",
        "DivNrcCodeMyan": "၉",
        "DivNrcCodeUMyan": "၉"
    },
    {
        "State Code": "SAGADIVI",
        "State Name": "Sagaing Division",
        "State BName": "စစ္ကိုင္းတိုင္းေဒသႀကီး",
        "State BUName": "စစ်ကိုင်းတိုင်းဒေသကြီး",
        "isState": "1",
        "DivNrcCode": "5",
        "DivNrcCodeMyan": "၅",
        "DivNrcCodeUMyan": "၅"
    },
    {
        "State Code": "TANIDIVI",
        "State Name": "Tanintharyi Division",
        "State BName": "တနသၤာရီတိုင္းေဒသႀကီး",
        "State BUName": "တနင်္သာရီတိုင်းဒေသကြီး",
        "isState": "1",
        "DivNrcCode": "6",
        "DivNrcCodeMyan": "၆",
        "DivNrcCodeUMyan": "၆"
    },
    {
        "State Code": "YANGDIVI",
        "State Name": "Yangon Division",
        "State BName": "ရန္ကုန္တိုင္းေဒသႀကီး",
        "State BUName": "ရန်ကုန်တိုင်းဒေသကြီး",
        "isState": "1",
        "DivNrcCode": "12",
        "DivNrcCodeMyan": "၁၂",
        "DivNrcCodeUMyan": "၁၂"
    }
   
  ]
}
